digraph "src/headers/Expression.hpp"
{
 // LATEX_PDF_SIZE
  bgcolor="transparent";
  edge [fontname=Helvetica,fontsize=10,labelfontname=Helvetica,labelfontsize=10];
  node [fontname=Helvetica,fontsize=10,shape=box,height=0.2,width=0.4];
  Node1 [id="Node000001",label="src/headers/Expression.hpp",height=0.2,width=0.4,color="gray40", fillcolor="grey60", style="filled", fontcolor="black",tooltip="Implementación de una Matriz algebraica."];
  Node1 -> Node2 [id="edge3_Node000001_Node000002",color="steelblue1",style="solid",tooltip=" "];
  Node2 [id="Node000002",label="string",height=0.2,width=0.4,color="grey60", fillcolor="#E0E0E0", style="filled",tooltip=" "];
  Node1 -> Node3 [id="edge4_Node000001_Node000003",color="steelblue1",style="solid",tooltip=" "];
  Node3 [id="Node000003",label="../headers/Stack.hpp",height=0.2,width=0.4,color="grey60", fillcolor="#E0E0E0", style="filled",tooltip=" "];
}
